INSERT INTO MODEL(train_id,model_name,model_file,scaler_file,parameters,best_params,
                                f1,accuracy,precision,recall,specificity,roc,tn,tp,fn,fp,
                                backtest_name,backtest_conf,indicator_conf, prepare_conf, target_conf,profit,n_buys,n_buysacum,
                                chart_fondos,chart_candles, type_evaluation)
                                VALUES(1,"xgb","./models/modelo_xgb_FTMBTC_30m_06062022103146PM.joblib","./models/scalers/_FTMBTC_30m_06062022103146PM.joblib","{'new': True, 'search_parameter': {'use': True, 'learning_rate': [0.1], 'objective': ['binary:logistic'], 'cv': 5, 'n_estimators': [800, 1000], 'random_state': [0]}, 'name': 'modelo_xgb', 'estimators': 200, 'objective': 'binary:hinge', 'compressor': 4, 'learning_rate': 0.1, 'random_state': 0}",
                                "{'learning_rate': 0.1, 'n_estimators': 1000, 'objective': 'binary:logistic', 'random_state': 0}",0.8596881959910914,0.8991596638655462,0.8832951945080092,0.8373101952277657,0.9353202282815473,0.8863152117546566,1475,772,150,
                                102, "promedio_creciente", "{'name': 'promedio_creciente', 'use': True, 'parameters': {'initial_capital': 0.01, 'save_charts': True, 'profit': 1.02, 'max_buys': 12, 'initial_divisor': 16, 'distance': 12}}", "['rsi', 'macd', 'ema50', 'ema100', 'ema200', 'cambio', 'obv']", "{'only_oversell': True, 'below_rsi': 30, 'test_size': 0.2, 'random_state': 0, 'date_split': '2022-04-01', 'graph_start': '2022-04-01', 'graph_end': '2022-06-30'}", "{'target_min': False, 'profit': 0.02, 'risk': 0.02, 'profit_candles': 16, 'risk_candles': 16, 'min_rsi': 25, 'use_histogram_reverse': False}", 0.01043191570912472,
                                31, 11, "./data/backtest/fondos_06062022103420PM.html", "./data/backtest/chart_06062022103420PM.html", 'One models');INSERT INTO MODEL(train_id,model_name,model_file,scaler_file,parameters,best_params,
                                f1,accuracy,precision,recall,specificity,roc,tn,tp,fn,fp,
                                backtest_name,backtest_conf,indicator_conf, prepare_conf, target_conf,profit,n_buys,n_buysacum,
                                chart_fondos,chart_candles, type_evaluation)
                                VALUES(1,"xgb","./models/modelo_xgb_FTMBTC_30m_06062022104408PM.joblib","./models/scalers/_FTMBTC_30m_06062022104408PM.joblib","{'new': True, 'search_parameter': {'use': True, 'learning_rate': [0.1], 'objective': ['binary:logistic'], 'cv': 5, 'n_estimators': [800, 1000], 'random_state': [0]}, 'name': 'modelo_xgb', 'estimators': 200, 'objective': 'binary:hinge', 'compressor': 4, 'learning_rate': 0.1, 'random_state': 0}",
                                "{'learning_rate': 0.1, 'n_estimators': 1000, 'objective': 'binary:logistic', 'random_state': 0}",0.8596881959910914,0.8991596638655462,0.8832951945080092,0.8373101952277657,0.9353202282815473,0.8863152117546566,1475,772,150,
                                102, "promedio_creciente", "{'name': 'promedio_creciente', 'use': True, 'parameters': {'initial_capital': 0.01, 'save_charts': True, 'profit': 1.02, 'max_buys': 12, 'initial_divisor': 16, 'distance': 12}}", "['rsi', 'macd', 'ema50', 'ema100', 'ema200', 'cambio', 'obv']", "{'only_oversell': True, 'below_rsi': 30, 'test_size': 0.2, 'random_state': 0, 'date_split': '2022-04-01', 'graph_start': '2022-04-01', 'graph_end': '2022-06-30'}", "{'target_min': False, 'profit': 0.02, 'risk': 0.02, 'profit_candles': 16, 'risk_candles': 16, 'min_rsi': 25, 'use_histogram_reverse': False}", 0.01043191570912472,
                                31, 11, "./data/backtest/fondos_06062022104640PM.html", "./data/backtest/chart_06062022104640PM.html", 'One models');INSERT INTO MODEL(train_id,model_name,model_file,scaler_file,parameters,best_params,
                                f1,accuracy,precision,recall,specificity,roc,tn,tp,fn,fp,
                                backtest_name,backtest_conf,indicator_conf, prepare_conf, target_conf,profit,n_buys,n_buysacum,
                                chart_fondos,chart_candles, type_evaluation)
                                VALUES(1,"xgb","./models/modelo_xgb_FTMBTC_30m_07062022085125AM.joblib","./models/scalers/_FTMBTC_30m_07062022085125AM.joblib","{'new': True, 'search_parameter': {'use': True, 'learning_rate': [0.1], 'objective': ['binary:logistic'], 'cv': 5, 'n_estimators': [800, 1000], 'random_state': [0]}, 'name': 'modelo_xgb', 'estimators': 200, 'objective': 'binary:hinge', 'compressor': 4, 'learning_rate': 0.1, 'random_state': 0}",
                                "{'learning_rate': 0.1, 'n_estimators': 1000, 'objective': 'binary:logistic', 'random_state': 0}",0.8596881959910914,0.8991596638655462,0.8832951945080092,0.8373101952277657,0.9353202282815473,0.8863152117546566,1475,772,150,
                                102, "promedio_creciente", "{'name': 'promedio_creciente', 'use': True, 'parameters': {'initial_capital': 0.01, 'save_charts': True, 'profit': 1.02, 'max_buys': 8, 'initial_divisor': 10, 'distance': 24}}", "['rsi', 'macd', 'ema50', 'ema100', 'ema200', 'cambio', 'obv']", "{'only_oversell': True, 'below_rsi': 30, 'test_size': 0.2, 'random_state': 0, 'date_split': '2022-04-01', 'graph_start': '2022-04-01', 'graph_end': '2022-06-30'}", "{'target_min': False, 'profit': 0.02, 'risk': 0.02, 'profit_candles': 16, 'risk_candles': 16, 'min_rsi': 25, 'use_histogram_reverse': False}", 0.010527878045628753,
                                24, 8, "./data/backtest/fondos_07062022085343AM.html", "./data/backtest/chart_07062022085343AM.html", 'One models');INSERT INTO MODEL(train_id,model_name,model_file,scaler_file,parameters,best_params,
                                f1,accuracy,precision,recall,specificity,roc,tn,tp,fn,fp,
                                backtest_name,backtest_conf,indicator_conf, prepare_conf, target_conf,profit,n_buys,n_buysacum,
                                chart_fondos,chart_candles, type_evaluation)
                                VALUES(1,"xgb","./models/modelo_xgb_FTMBTC_30m_07062022094139AM.joblib","./models/scalers/_FTMBTC_30m_07062022094139AM.joblib","{'new': True, 'search_parameter': {'use': True, 'learning_rate': [0.1], 'objective': ['binary:logistic'], 'cv': 5, 'n_estimators': [800, 1000], 'random_state': [0]}, 'name': 'modelo_xgb', 'estimators': 200, 'objective': 'binary:hinge', 'compressor': 4, 'learning_rate': 0.1, 'random_state': 0}",
                                "{'learning_rate': 0.1, 'n_estimators': 1000, 'objective': 'binary:logistic', 'random_state': 0}",0.8596881959910914,0.8991596638655462,0.8832951945080092,0.8373101952277657,0.9353202282815473,0.8863152117546566,1475,772,150,
                                102, "promedio_creciente", "{'name': 'promedio_creciente', 'use': True, 'parameters': {'initial_capital': 0.01, 'save_charts': True, 'profit': 1.02, 'max_buys': 12, 'initial_divisor': 16, 'distance': 24}}", "['rsi', 'macd', 'ema50', 'ema100', 'ema200', 'cambio', 'obv']", "{'only_oversell': True, 'below_rsi': 30, 'test_size': 0.2, 'random_state': 0, 'date_split': '2022-04-01', 'graph_start': '2022-04-01', 'graph_end': '2022-06-30'}", "{'target_min': False, 'profit': 0.02, 'risk': 0.02, 'profit_candles': 16, 'risk_candles': 16, 'min_rsi': 25, 'use_histogram_reverse': False}", 0.010317330072756163,
                                24, 8, "./data/backtest/fondos_07062022094415AM.html", "./data/backtest/chart_07062022094415AM.html", 'One models');INSERT INTO MODEL(train_id,model_name,model_file,scaler_file,parameters,best_params,
                                f1,accuracy,precision,recall,specificity,roc,tn,tp,fn,fp,
                                backtest_name,backtest_conf,indicator_conf, prepare_conf, target_conf,profit,n_buys,n_buysacum,
                                chart_fondos,chart_candles, type_evaluation)
                                VALUES(1,"xgb","./models/modelo_xgb_FTMBTC_30m_07062022094805AM.joblib","./models/scalers/_FTMBTC_30m_07062022094805AM.joblib","{'new': True, 'search_parameter': {'use': True, 'learning_rate': [0.1], 'objective': ['binary:logistic'], 'cv': 5, 'n_estimators': [800, 1000], 'random_state': [0]}, 'name': 'modelo_xgb', 'estimators': 200, 'objective': 'binary:hinge', 'compressor': 4, 'learning_rate': 0.1, 'random_state': 0}",
                                "{'learning_rate': 0.1, 'n_estimators': 1000, 'objective': 'binary:logistic', 'random_state': 0}",0.8596881959910914,0.8991596638655462,0.8832951945080092,0.8373101952277657,0.9353202282815473,0.8863152117546566,1475,772,150,
                                102, "promedio_creciente", "{'name': 'promedio_creciente', 'use': True, 'parameters': {'initial_capital': 0.01, 'save_charts': True, 'profit': 1.02, 'max_buys': 8, 'initial_divisor': 10, 'distance': 24}}", "['rsi', 'macd', 'ema50', 'ema100', 'ema200', 'cambio', 'obv']", "{'only_oversell': True, 'below_rsi': 30, 'test_size': 0.2, 'random_state': 0, 'date_split': '2022-04-01', 'graph_start': '2022-04-01', 'graph_end': '2022-06-30'}", "{'target_min': False, 'profit': 0.02, 'risk': 0.02, 'profit_candles': 16, 'risk_candles': 16, 'min_rsi': 25, 'use_histogram_reverse': False}", 0.010527878045628753,
                                24, 8, "./data/backtest/fondos_07062022095032AM.html", "./data/backtest/chart_07062022095032AM.html", 'One models');INSERT INTO MODEL(train_id,model_name,model_file,scaler_file,parameters,best_params,
                                f1,accuracy,precision,recall,specificity,roc,tn,tp,fn,fp,
                                backtest_name,backtest_conf,indicator_conf, prepare_conf, target_conf,profit,n_buys,n_buysacum,
                                chart_fondos,chart_candles, type_evaluation)
                                VALUES(1,"random_forest","./models/modelo_rf_FTMBTC_30m_07062022095617AM.joblib","./models/scalers/_FTMBTC_30m_07062022095344AM.joblib","{'new': True, 'name': 'modelo_rf', 'search_parameter': {'use': True, 'n_stimators': [800, 1000], 'min_samples_split': [4], 'cv': 5, 'random_state': [0]}, 'estimators': 600, 'compressor': 4, 'random_state': 0}",
                                "{'min_samples_split': 4, 'n_estimators': 1000, 'random_state': 0}",0.840677966101695,0.8871548619447779,0.8857142857142857,0.8,0.9388145315487572,0.8694072657743785,1473,744,186,
                                96, "promedio_creciente", "{'name': 'promedio_creciente', 'use': True, 'parameters': {'initial_capital': 0.01, 'save_charts': True, 'profit': 1.01, 'max_buys': 8, 'initial_divisor': 10, 'distance': 12}}", "['rsi', 'macd', 'ema50', 'ema100', 'ema200', 'cambio', 'obv']", "{'only_oversell': True, 'below_rsi': 30, 'test_size': 0.2, 'random_state': 0, 'date_split': '2022-04-01', 'graph_start': '2022-04-01', 'graph_end': '2022-06-30'}", "{'target_min': False, 'profit': 0.01, 'risk': 0.015, 'profit_candles': 16, 'risk_candles': 16, 'min_rsi': 25, 'use_histogram_reverse': False}", 0.010441683917276998,
                                42, 6, "./data/backtest/fondos_07062022095924AM.html", "./data/backtest/chart_07062022095924AM.html", 'One models');INSERT INTO MODEL(train_id,model_name,model_file,scaler_file,parameters,best_params,
                                f1,accuracy,precision,recall,specificity,roc,tn,tp,fn,fp,
                                backtest_name,backtest_conf,indicator_conf, prepare_conf, target_conf,profit,n_buys,n_buysacum,
                                chart_fondos,chart_candles, type_evaluation)
                                VALUES(1,"random_forest","./models/modelo_rf_FTMBTC_30m_07062022100817AM.joblib","./models/scalers/_FTMBTC_30m_07062022100538AM.joblib","{'new': True, 'name': 'modelo_rf', 'search_parameter': {'use': True, 'n_stimators': [800, 1000], 'min_samples_split': [4], 'cv': 5, 'random_state': [0]}, 'estimators': 600, 'compressor': 4, 'random_state': 0}",
                                "{'min_samples_split': 4, 'n_estimators': 800, 'random_state': 0}",0.8964331757627848,0.9035614245698279,0.9030303030303031,0.8899317406143344,0.9155990957045969,0.9027654181594658,1215,1043,129,
                                112, "promedio_creciente", "{'name': 'promedio_creciente', 'use': True, 'parameters': {'initial_capital': 0.01, 'save_charts': True, 'profit': 1.01, 'max_buys': 12, 'initial_divisor': 16, 'distance': 12}}", "['rsi', 'macd', 'ema50', 'ema100', 'ema200', 'cambio', 'obv']", "{'only_oversell': True, 'below_rsi': 30, 'test_size': 0.2, 'random_state': 0, 'date_split': '2022-04-01', 'graph_start': '2022-04-01', 'graph_end': '2022-06-30'}", "{'target_min': False, 'profit': 0.01, 'risk': 0.02, 'profit_candles': 16, 'risk_candles': 16, 'min_rsi': 25, 'use_histogram_reverse': False}", 0.010356786910991646,
                                53, 11, "./data/backtest/fondos_07062022101119AM.html", "./data/backtest/chart_07062022101119AM.html", 'One models');INSERT INTO MODEL(train_id,model_name,model_file,scaler_file,parameters,best_params,
                                f1,accuracy,precision,recall,specificity,roc,tn,tp,fn,fp,
                                backtest_name,backtest_conf,indicator_conf, prepare_conf, target_conf,profit,n_buys,n_buysacum,
                                chart_fondos,chart_candles, type_evaluation)
                                VALUES(1,"random_forest","./models/modelo_rf_FTMBTC_30m_07062022105330AM.joblib","./models/scalers/_FTMBTC_30m_07062022105103AM.joblib","{'new': True, 'name': 'modelo_rf', 'search_parameter': {'use': True, 'n_stimators': [800, 1000], 'min_samples_split': [4], 'cv': 5, 'random_state': [0]}, 'estimators': 600, 'compressor': 4, 'random_state': 0}",
                                "{'min_samples_split': 4, 'n_estimators': 800, 'random_state': 0}",0.8964331757627848,0.9035614245698279,0.9030303030303031,0.8899317406143344,0.9155990957045969,0.9027654181594658,1215,1043,129,
                                112, "promedio_creciente", "{'name': 'promedio_creciente', 'use': True, 'parameters': {'initial_capital': 0.01, 'save_charts': True, 'profit': 1.01, 'max_buys': 12, 'initial_divisor': 16, 'distance': 12}}", "['rsi', 'macd', 'ema50', 'ema100', 'ema200', 'cambio', 'obv']", "{'only_oversell': True, 'below_rsi': 30, 'test_size': 0.2, 'random_state': 0, 'date_split': '2022-04-01', 'graph_start': '2022-04-01', 'graph_end': '2022-06-30'}", "{'target_min': False, 'profit': 0.01, 'risk': 0.02, 'profit_candles': 16, 'risk_candles': 16, 'min_rsi': 25, 'use_histogram_reverse': False}", 0.010356786910991646,
                                53, 11, "./data/backtest/fondos_07062022105630AM.html", "./data/backtest/chart_07062022105630AM.html", 'One models');INSERT INTO MODEL(train_id,model_name,model_file,scaler_file,parameters,best_params,
                                f1,accuracy,precision,recall,specificity,roc,tn,tp,fn,fp,
                                backtest_name,backtest_conf,indicator_conf, prepare_conf, target_conf,profit,n_buys,n_buysacum,
                                chart_fondos,chart_candles, type_evaluation)
                                VALUES(1,"random_forest","./models/modelo_rf_FTMBTC_30m_07062022111036AM.joblib","./models/scalers/_FTMBTC_30m_07062022110805AM.joblib","{'new': True, 'name': 'modelo_rf', 'search_parameter': {'use': True, 'n_stimators': [800, 1000], 'min_samples_split': [4], 'cv': 5, 'random_state': [0]}, 'estimators': 600, 'compressor': 4, 'random_state': 0}",
                                "{'min_samples_split': 4, 'n_estimators': 1000, 'random_state': 0}",0.8167797655768043,0.8870292887029289,0.9006802721088435,0.7471783295711061,0.9581181870338497,0.8526482583024779,1670,662,224,
                                73, "promedio_creciente", "{'name': 'promedio_creciente', 'use': True, 'parameters': {'initial_capital': 0.01, 'save_charts': True, 'profit': 1.02, 'max_buys': 8, 'initial_divisor': 10, 'distance': 12}}", "['rsi', 'macd', 'ema50', 'ema100', 'ema200', 'cambio', 'obv']", "{'only_oversell': True, 'below_rsi': 30, 'test_size': 0.2, 'random_state': 0, 'date_split': '2022-04-01', 'graph_start': '2022-04-01', 'graph_end': '2022-06-30'}", "{'target_min': False, 'profit': 0.02, 'risk': 0.015, 'profit_candles': 16, 'risk_candles': 16, 'min_rsi': 30, 'use_histogram_reverse': False}", 0.010677292997460066,
                                30, 8, "./data/backtest/fondos_07062022111352AM.html", "./data/backtest/chart_07062022111352AM.html", 'One models');INSERT INTO MODEL(train_id,model_name,model_file,scaler_file,parameters,best_params,
                                f1,accuracy,precision,recall,specificity,roc,tn,tp,fn,fp,
                                backtest_name,backtest_conf,indicator_conf, prepare_conf, target_conf,profit,n_buys,n_buysacum,
                                chart_fondos,chart_candles, type_evaluation)
                                VALUES(1,"random_forest","./models/modelo_rf_FTMBTC_30m_07062022114415AM.joblib","./models/scalers/_FTMBTC_30m_07062022114130AM.joblib","{'new': True, 'name': 'modelo_rf', 'search_parameter': {'use': True, 'n_stimators': [800, 1000], 'min_samples_split': [4], 'cv': 5, 'random_state': [0]}, 'estimators': 600, 'compressor': 4, 'random_state': 0}",
                                "{'min_samples_split': 4, 'n_estimators': 1000, 'random_state': 0}",0.8167797655768043,0.8870292887029289,0.9006802721088435,0.7471783295711061,0.9581181870338497,0.8526482583024779,1670,662,224,
                                73, "promedio_creciente", "{'name': 'promedio_creciente', 'use': True, 'parameters': {'initial_capital': 0.01, 'save_charts': True, 'profit': 1.02, 'max_buys': 8, 'initial_divisor': 10, 'distance': 24}}", "['rsi', 'macd', 'ema50', 'ema100', 'ema200', 'cambio', 'obv']", "{'only_oversell': True, 'below_rsi': 30, 'test_size': 0.2, 'random_state': 0, 'date_split': '2022-04-01', 'graph_start': '2022-04-01', 'graph_end': '2022-06-30'}", "{'target_min': False, 'profit': 0.02, 'risk': 0.015, 'profit_candles': 16, 'risk_candles': 16, 'min_rsi': 30, 'use_histogram_reverse': False}", 0.010528595487184563,
                                25, 5, "./data/backtest/fondos_07062022114731AM.html", "./data/backtest/chart_07062022114731AM.html", 'One models');