{
    "get_data": {
        "ticks": [
            "NEARBTC",
            "ALGOBTC",
            "SOLBTC",
            "FTMBTC"
        ],
        "download": true,
        "timeframe": "30m",
        "ini": "2020-01-01",
        "end": "2022-06-30",
        "independent_tick": true
    },
    "indicators": [
        "rsi",
        "macd",
        "ema50",
        "ema100",
        "ema200",
        "cambio",
        "obv"
    ],
    "target": {
        "target_min": false,
        "profit": 0.015,
        "risk": 0.02,
        "profit_candles": 32,
        "risk_candles": 32,
        "min_rsi": 28,
        "use_histogram_reverse": true
    },
    "prepare_data": {
        "only_oversell": true,
        "below_rsi": 30,
        "test_size": 0.20,
        "random_state": 0,
        "date_split": "2022-04-01",
        "graph_start": "2022-04-01",
        "graph_end": "2022-06-30"
    },
    "models": [
        {
            "name": "xgb",
            "use": true,
            "parameters": {
                "new": true,
                "search_parameter": {
                    "use": true,
                    "learning_rate": [
                        0.1
                    ],
                    "objective": [
                        "binary:logistic"
                    ],
                    "cv": 5,
                    "n_estimators": [
                        800,
                        1000
                    ],
                    "random_state": [
                        0
                    ]
                },
                "name": "modelo_xgb",
                "estimators": 200,
                "objective": "binary:hinge",
                "compressor": 4,
                "learning_rate": 0.1,
                "random_state": 0
            }
        },
        {
            "name": "random_forest",
            "use": true,
            "parameters": {
                "new": true,
                "name": "modelo_rf",
                "search_parameter": {
                    "use": true,
                    "n_stimators": [
                        800,
                        1000
                    ],
                    "min_samples_split": [
                        4
                    ],
                    "cv": 5,
                    "random_state": [
                        0
                    ]
                },
                "estimators": 600,
                "compressor": 4,
                "random_state": 0
            }
        },
        {
            "name": "svm",
            "use": false,
            "parameters": {
                "new": false,
                "search_parameter": {
                    "use": false,
                    "kernel": [
                        "rbf",
                        "linear"
                    ],
                    "cv": 5,
                    "random_state": [
                        0
                    ]
                },
                "name": "modelo_svm",
                "kernel": "rbf",
                "compressor": 4
            }
        },
        {
            "name": "knn",
            "use": false,
            "parameters": {
                "new": false,
                "search_parameter": {
                    "use": false,
                    "metric": [
                        "euclidean",
                        "minkowski"
                    ],
                    "cv": 5,
                    "n_neighbors": [
                        5,
                        7
                    ]
                },
                "name": "modelo_knn",
                "metric": "euclidean",
                "neighbours": 7,
                "compressor": 4
            }
        }
    ],
    "mysql": {
        "host": "127.0.0.1",
        "user": "root",
        "password": "",
        "database": "pruebas"
    },
    "backtests": [
        {
            "name": "promedio_creciente",
            "use": true,
            "parameters": {
                "initial_capital": 0.01,
                "save_charts": true,
                "profit": 1.01,
                "max_buys": 10,
                "initial_divisor": 12,
                "distance": 12
            }
        }
    ],
    "api_key": "zSxeHJMmUP7Fi0xkzP6urtYbH0dnYQNPdUdUsCprrYCjVEltpIFfzJYTN5lv8SGT",
    "api_secret": "9tEQDmRV1rMV0nEmNm6aQ1KfaOGasv4VweEOVDqsIJ4luf0o0O2GR3yrMPOhw0bH"
}